…
```
## # A tibble: 44 x 3
##     Week Chaetoceros_wighamii Chaetoceros_wighamii_est
##    <dbl>                <dbl>                    <dbl>
##  1     9                   NA                       NA
##  2    10                   NA                       NA
##  3    11                   NA                       NA
##  4    12                   NA                       NA
##  5    13                   NA                       NA
##  6    14                   NA                       NA
##  7    15                   NA                       NA
##  8    16                   NA                       NA
##  9    17                   NA                       NA
## 10    18                 1360                     1204
## # ... with 34 more rows
```
…
```
## # A tibble: 44 x 8
##     Week `Chaetoceros 0-4` `Chaetoceros debi~ `Chaetoceros wigh~ `Chaetoceros 6`
##    <dbl>             <dbl>              <dbl>              <dbl>           <dbl>
##  1     9                NA                 NA                 NA              NA
##  2    10                NA                 NA                 NA              NA
##  3    11                NA                 NA                 NA              NA
##  4    12                NA                 NA                 NA              NA
##  5    13                NA                 NA                 NA              NA
##  6    14                NA                 NA                 NA              NA
##  7    15                NA                 NA                 NA              NA
##  8    16                NA                 NA                 NA              NA
##  9    17                NA                 NA                 NA              NA
## 10    18             73570                640                480           57760
## # ... with 34 more rows, and 3 more variables: Chaetoceros decipiens 6 <dbl>,
## #   Chaetoceros wighamii 6 <dbl>, Chaetoceros_wighamii <dbl>
```
…
```
## # A tibble: 44 x 3
##     Week Chaetoceros_spp Chaetoceros_spp_est
##    <dbl>           <dbl>               <dbl>
##  1     9              NA                  NA
##  2    10              NA                  NA
##  3    11              NA                  NA
##  4    12              NA                  NA
##  5    13              NA                  NA
##  6    14              NA                  NA
##  7    15              NA                  NA
##  8    16              NA                  NA
##  9    17              NA                  NA
## 10    18           65665               54313
## # ... with 34 more rows
```
…
